{
  "iisSettings": {
    "windowsAuthentication": false,
    "anonymousAuthentication": true,
    "iis": {
      "applicationUrl": "http://localhost/ActivityRecords.Gateway.Api.Service",
      "sslPort": 0
    },
    "iisExpress": {
      "applicationUrl": "http://localhost:5000",
      "sslPort": 0
    }
  },
  "profiles": {
    "IIS Express": {
      "commandName": "IISExpress",
      "environmentVariables": {
        "ASPNETCORE_ENVIRONMENT": "Development"
      }
    },
    "ActivityRecords.Gateway.Api.Service": {
      "commandName": "Project",
      "launchBrowser": true,
      "environmentVariables": {
        "ASPNETCORE_ENVIRONMENT": "Development"
      },
      "applicationUrl": "http://localhost:5000"
    },
    "WSL 2": {
      "commandName": "WSL2",
      "launchBrowser": true,
      "launchUrl": "http://localhost:5000",
      "environmentVariables": {
        "ASPNETCORE_URLS": "http://localhost:5000",
        "ASPNETCORE_ENVIRONMENT": "Development"
      },
      "distributionName": ""
    },
    "IIS": {
      "commandName": "IIS"
    }
  }
}